Lab3/report/simulation.log
#-----------------------------------------------------------
# xsim v2022.1 (64-bit)
# SW Build 3526262 on Mon Apr 18 15:47:01 MDT 2022
# IP Build 3524634 on Mon Apr 18 20:55:01 MDT 2022
# Start of session at: Sun Mar 16 09:39:27 2025
# Process ID: 9688
# Current directory: /home/ubuntu/Lab3
# Command line: xsim -mode tcl -source {xsim.dir/fir_tb_elab/xsim_script.tcl}
# Log file: /home/ubuntu/Lab3/xsim.log
# Journal file: /home/ubuntu/Lab3/xsim.jou
# Running On: ubuntu2004, OS: Linux, CPU Frequency: 2496.002 MHz, CPU Physical cores: 2, Host memory: 10424 MB
#-----------------------------------------------------------
source xsim.dir/fir_tb_elab/xsim_script.tcl
# xsim {fir_tb_elab} -autoloadwcfg -runall
Time resolution is 1 ps
run -all
============ Start simualtion ============
============== Test 1 Start ==============
[PASS]  exp =     0, rdata =     0, time:    275
[PASS]  exp =   -10, rdata =   -10, time:    295
[PASS]  exp =    -9, rdata =    -9, time:    315
[PASS]  exp =    23, rdata =    23, time:    335
[PASS]  exp =    56, rdata =    56, time:    355
[PASS]  exp =    63, rdata =    63, time:    375
[PASS]  exp =    56, rdata =    56, time:    395
[PASS]  exp =    23, rdata =    23, time:    415
[PASS]  exp =    -9, rdata =    -9, time:    435
[PASS]  exp =   -10, rdata =   -10, time:    455
[PASS]  exp =     0, rdata =     0, time:    475
[PASS]  exp =    -1, rdata =    -1, time:    545
[PASS]  exp =    -1, rdata =    -1, time:    585
[PASS]  exp =    -1, rdata =    -1, time:    625
[PASS]  [Pattern    0] Golden:      0, Yours:      0, time:    635
[PASS]  exp =    -1, rdata =    -1, time:    665
[PASS]  exp =    -1, rdata =    -1, time:    705
[PASS]  exp =    -1, rdata =    -1, time:    745
[PASS]  [Pattern    1] Golden:    -10, Yours:    -10, time:    745
[PASS]  exp =    -1, rdata =    -1, time:    785
[PASS]  exp =    -1, rdata =    -1, time:    825
[PASS]  [Pattern    2] Golden:    -29, Yours:    -29, time:    855
[PASS]  exp =    -1, rdata =    -1, time:    865
[PASS]  exp =    -1, rdata =    -1, time:    905
[PASS]  exp =    -1, rdata =    -1, time:    945
[PASS]  [Pattern    3] Golden:    -25, Yours:    -25, time:    965
[PASS]  exp =     0, rdata =     0, time:    985
[PASS]  exp =   600, rdata =   600, time:   1025
[PASS]  [Pattern    4] Golden:     35, Yours:     35, time:   1075
[PASS]  [Pattern    5] Golden:    158, Yours:    158, time:   1185
[PASS]  [Pattern    6] Golden:    337, Yours:    337, time:   1295
[PASS]  [Pattern    7] Golden:    539, Yours:    539, time:   1405
[PASS]  [Pattern    8] Golden:    732, Yours:    732, time:   1515
[PASS]  [Pattern    9] Golden:    915, Yours:    915, time:   1625
[PASS]  [Pattern   10] Golden:   1098, Yours:   1098, time:   1735
[PASS]  [Pattern   11] Golden:   1281, Yours:   1281, time:   1845
[PASS]  [Pattern   12] Golden:   1464, Yours:   1464, time:   1955
[PASS]  [Pattern   13] Golden:   1647, Yours:   1647, time:   2065
[PASS]  [Pattern   14] Golden:   1830, Yours:   1830, time:   2175
[PASS]  [Pattern   15] Golden:   2013, Yours:   2013, time:   2285
[PASS]  [Pattern   16] Golden:   2196, Yours:   2196, time:   2395
[PASS]  [Pattern   17] Golden:   2379, Yours:   2379, time:   2505
[PASS]  [Pattern   18] Golden:   2562, Yours:   2562, time:   2615
[PASS]  [Pattern   19] Golden:   2745, Yours:   2745, time:   2725
[PASS]  [Pattern   20] Golden:   2928, Yours:   2928, time:   2835
[PASS]  [Pattern   21] Golden:   3111, Yours:   3111, time:   2945
[PASS]  [Pattern   22] Golden:   3294, Yours:   3294, time:   3055
[PASS]  [Pattern   23] Golden:   3477, Yours:   3477, time:   3165
[PASS]  [Pattern   24] Golden:   3660, Yours:   3660, time:   3275
[PASS]  [Pattern   25] Golden:   3843, Yours:   3843, time:   3385
[PASS]  [Pattern   26] Golden:   4026, Yours:   4026, time:   3495
[PASS]  [Pattern   27] Golden:   4209, Yours:   4209, time:   3605
[PASS]  [Pattern   28] Golden:   4392, Yours:   4392, time:   3715
[PASS]  [Pattern   29] Golden:   4575, Yours:   4575, time:   3825
[PASS]  [Pattern   30] Golden:   4758, Yours:   4758, time:   3935
[PASS]  [Pattern   31] Golden:   4941, Yours:   4941, time:   4045
[PASS]  [Pattern   32] Golden:   5124, Yours:   5124, time:   4155
[PASS]  [Pattern   33] Golden:   5307, Yours:   5307, time:   4265
[PASS]  [Pattern   34] Golden:   5490, Yours:   5490, time:   4375
[PASS]  [Pattern   35] Golden:   5673, Yours:   5673, time:   4485
[PASS]  [Pattern   36] Golden:   5856, Yours:   5856, time:   4595
[PASS]  [Pattern   37] Golden:   6039, Yours:   6039, time:   4705
[PASS]  [Pattern   38] Golden:   6222, Yours:   6222, time:   4815
[PASS]  [Pattern   39] Golden:   6405, Yours:   6405, time:   4925
[PASS]  [Pattern   40] Golden:   6588, Yours:   6588, time:   5035
[PASS]  [Pattern   41] Golden:   6771, Yours:   6771, time:   5145
[PASS]  [Pattern   42] Golden:   6954, Yours:   6954, time:   5255
[PASS]  [Pattern   43] Golden:   7137, Yours:   7137, time:   5365
[PASS]  [Pattern   44] Golden:   7320, Yours:   7320, time:   5475
[PASS]  [Pattern   45] Golden:   7503, Yours:   7503, time:   5585
[PASS]  [Pattern   46] Golden:   7686, Yours:   7686, time:   5695
[PASS]  [Pattern   47] Golden:   7869, Yours:   7869, time:   5805
[PASS]  [Pattern   48] Golden:   8052, Yours:   8052, time:   5915
[PASS]  [Pattern   49] Golden:   8235, Yours:   8235, time:   6025
[PASS]  [Pattern   50] Golden:   8418, Yours:   8418, time:   6135
[PASS]  [Pattern   51] Golden:   8601, Yours:   8601, time:   6245
[PASS]  [Pattern   52] Golden:   8784, Yours:   8784, time:   6355
[PASS]  [Pattern   53] Golden:   8967, Yours:   8967, time:   6465
[PASS]  [Pattern   54] Golden:   9150, Yours:   9150, time:   6575
[PASS]  [Pattern   55] Golden:   9333, Yours:   9333, time:   6685
[PASS]  [Pattern   56] Golden:   9516, Yours:   9516, time:   6795
[PASS]  [Pattern   57] Golden:   9699, Yours:   9699, time:   6905
[PASS]  [Pattern   58] Golden:   9882, Yours:   9882, time:   7015
[PASS]  [Pattern   59] Golden:  10065, Yours:  10065, time:   7125
[PASS]  [Pattern   60] Golden:  10248, Yours:  10248, time:   7235
[PASS]  [Pattern   61] Golden:  10431, Yours:  10431, time:   7345
[PASS]  [Pattern   62] Golden:  10614, Yours:  10614, time:   7455
[PASS]  [Pattern   63] Golden:  10797, Yours:  10797, time:   7565
[PASS]  [Pattern   64] Golden:  10980, Yours:  10980, time:   7675
[PASS]  [Pattern   65] Golden:  11163, Yours:  11163, time:   7785
[PASS]  [Pattern   66] Golden:  11346, Yours:  11346, time:   7895
[PASS]  [Pattern   67] Golden:  11529, Yours:  11529, time:   8005
[PASS]  [Pattern   68] Golden:  11712, Yours:  11712, time:   8115
[PASS]  [Pattern   69] Golden:  11895, Yours:  11895, time:   8225
[PASS]  [Pattern   70] Golden:  12078, Yours:  12078, time:   8335
[PASS]  [Pattern   71] Golden:  12261, Yours:  12261, time:   8445
[PASS]  [Pattern   72] Golden:  12444, Yours:  12444, time:   8555
[PASS]  [Pattern   73] Golden:  12627, Yours:  12627, time:   8665
[PASS]  [Pattern   74] Golden:  12810, Yours:  12810, time:   8775
[PASS]  [Pattern   75] Golden:  12993, Yours:  12993, time:   8885
[PASS]  [Pattern   76] Golden:  13196, Yours:  13196, time:   8995
[PASS]  [Pattern   77] Golden:  13417, Yours:  13417, time:   9105
[PASS]  [Pattern   78] Golden:  13592, Yours:  13592, time:   9215
[PASS]  [Pattern   79] Golden:  13655, Yours:  13655, time:   9325
[PASS]  [Pattern   80] Golden:  13592, Yours:  13592, time:   9435
[PASS]  [Pattern   81] Golden:  13417, Yours:  13417, time:   9545
[PASS]  [Pattern   82] Golden:  13196, Yours:  13196, time:   9655
[PASS]  [Pattern   83] Golden:  12993, Yours:  12993, time:   9765
[PASS]  [Pattern   84] Golden:  12810, Yours:  12810, time:   9875
[PASS]  [Pattern   85] Golden:  12627, Yours:  12627, time:   9985
[PASS]  [Pattern   86] Golden:  12444, Yours:  12444, time:  10095
[PASS]  [Pattern   87] Golden:  12261, Yours:  12261, time:  10205
[PASS]  [Pattern   88] Golden:  12078, Yours:  12078, time:  10315
[PASS]  [Pattern   89] Golden:  11895, Yours:  11895, time:  10425
[PASS]  [Pattern   90] Golden:  11712, Yours:  11712, time:  10535
[PASS]  [Pattern   91] Golden:  11529, Yours:  11529, time:  10645
[PASS]  [Pattern   92] Golden:  11346, Yours:  11346, time:  10755
[PASS]  [Pattern   93] Golden:  11163, Yours:  11163, time:  10865
[PASS]  [Pattern   94] Golden:  10980, Yours:  10980, time:  10975
[PASS]  [Pattern   95] Golden:  10797, Yours:  10797, time:  11085
[PASS]  [Pattern   96] Golden:  10614, Yours:  10614, time:  11195
[PASS]  [Pattern   97] Golden:  10431, Yours:  10431, time:  11305
[PASS]  [Pattern   98] Golden:  10248, Yours:  10248, time:  11415
[PASS]  [Pattern   99] Golden:  10065, Yours:  10065, time:  11525
[PASS]  [Pattern  100] Golden:   9882, Yours:   9882, time:  11635
[PASS]  [Pattern  101] Golden:   9699, Yours:   9699, time:  11745
[PASS]  [Pattern  102] Golden:   9516, Yours:   9516, time:  11855
[PASS]  [Pattern  103] Golden:   9333, Yours:   9333, time:  11965
[PASS]  [Pattern  104] Golden:   9150, Yours:   9150, time:  12075
[PASS]  [Pattern  105] Golden:   8967, Yours:   8967, time:  12185
[PASS]  [Pattern  106] Golden:   8784, Yours:   8784, time:  12295
[PASS]  [Pattern  107] Golden:   8601, Yours:   8601, time:  12405
[PASS]  [Pattern  108] Golden:   8418, Yours:   8418, time:  12515
[PASS]  [Pattern  109] Golden:   8235, Yours:   8235, time:  12625
[PASS]  [Pattern  110] Golden:   8052, Yours:   8052, time:  12735
[PASS]  [Pattern  111] Golden:   7869, Yours:   7869, time:  12845
[PASS]  [Pattern  112] Golden:   7686, Yours:   7686, time:  12955
[PASS]  [Pattern  113] Golden:   7503, Yours:   7503, time:  13065
[PASS]  [Pattern  114] Golden:   7320, Yours:   7320, time:  13175
[PASS]  [Pattern  115] Golden:   7137, Yours:   7137, time:  13285
[PASS]  [Pattern  116] Golden:   6954, Yours:   6954, time:  13395
[PASS]  [Pattern  117] Golden:   6771, Yours:   6771, time:  13505
[PASS]  [Pattern  118] Golden:   6588, Yours:   6588, time:  13615
[PASS]  [Pattern  119] Golden:   6405, Yours:   6405, time:  13725
[PASS]  [Pattern  120] Golden:   6222, Yours:   6222, time:  13835
[PASS]  [Pattern  121] Golden:   6039, Yours:   6039, time:  13945
[PASS]  [Pattern  122] Golden:   5856, Yours:   5856, time:  14055
[PASS]  [Pattern  123] Golden:   5673, Yours:   5673, time:  14165
[PASS]  [Pattern  124] Golden:   5490, Yours:   5490, time:  14275
[PASS]  [Pattern  125] Golden:   5307, Yours:   5307, time:  14385
[PASS]  [Pattern  126] Golden:   5124, Yours:   5124, time:  14495
[PASS]  [Pattern  127] Golden:   4941, Yours:   4941, time:  14605
[PASS]  [Pattern  128] Golden:   4758, Yours:   4758, time:  14715
[PASS]  [Pattern  129] Golden:   4575, Yours:   4575, time:  14825
[PASS]  [Pattern  130] Golden:   4392, Yours:   4392, time:  14935
[PASS]  [Pattern  131] Golden:   4209, Yours:   4209, time:  15045
[PASS]  [Pattern  132] Golden:   4026, Yours:   4026, time:  15155
[PASS]  [Pattern  133] Golden:   3843, Yours:   3843, time:  15265
[PASS]  [Pattern  134] Golden:   3660, Yours:   3660, time:  15375
[PASS]  [Pattern  135] Golden:   3477, Yours:   3477, time:  15485
[PASS]  [Pattern  136] Golden:   3294, Yours:   3294, time:  15595
[PASS]  [Pattern  137] Golden:   3111, Yours:   3111, time:  15705
[PASS]  [Pattern  138] Golden:   2928, Yours:   2928, time:  15815
[PASS]  [Pattern  139] Golden:   2745, Yours:   2745, time:  15925
[PASS]  [Pattern  140] Golden:   2562, Yours:   2562, time:  16035
[PASS]  [Pattern  141] Golden:   2379, Yours:   2379, time:  16145
[PASS]  [Pattern  142] Golden:   2196, Yours:   2196, time:  16255
[PASS]  [Pattern  143] Golden:   2013, Yours:   2013, time:  16365
[PASS]  [Pattern  144] Golden:   1830, Yours:   1830, time:  16475
[PASS]  [Pattern  145] Golden:   1647, Yours:   1647, time:  16585
[PASS]  [Pattern  146] Golden:   1464, Yours:   1464, time:  16695
[PASS]  [Pattern  147] Golden:   1281, Yours:   1281, time:  16805
[PASS]  [Pattern  148] Golden:   1098, Yours:   1098, time:  16915
[PASS]  [Pattern  149] Golden:    915, Yours:    915, time:  17025
[PASS]  [Pattern  150] Golden:    732, Yours:    732, time:  17135
[PASS]  [Pattern  151] Golden:    549, Yours:    549, time:  17245
[PASS]  [Pattern  152] Golden:    366, Yours:    366, time:  17355
[PASS]  [Pattern  153] Golden:    183, Yours:    183, time:  17465
[PASS]  [Pattern  154] Golden:      0, Yours:      0, time:  17575
[PASS]  [Pattern  155] Golden:   -183, Yours:   -183, time:  17685
[PASS]  [Pattern  156] Golden:   -366, Yours:   -366, time:  17795
[PASS]  [Pattern  157] Golden:   -549, Yours:   -549, time:  17905
[PASS]  [Pattern  158] Golden:   -732, Yours:   -732, time:  18015
[PASS]  [Pattern  159] Golden:   -915, Yours:   -915, time:  18125
[PASS]  [Pattern  160] Golden:  -1098, Yours:  -1098, time:  18235
[PASS]  [Pattern  161] Golden:  -1281, Yours:  -1281, time:  18345
[PASS]  [Pattern  162] Golden:  -1464, Yours:  -1464, time:  18455
[PASS]  [Pattern  163] Golden:  -1647, Yours:  -1647, time:  18565
[PASS]  [Pattern  164] Golden:  -1830, Yours:  -1830, time:  18675
[PASS]  [Pattern  165] Golden:  -2013, Yours:  -2013, time:  18785
[PASS]  [Pattern  166] Golden:  -2196, Yours:  -2196, time:  18895
[PASS]  [Pattern  167] Golden:  -2379, Yours:  -2379, time:  19005
[PASS]  [Pattern  168] Golden:  -2562, Yours:  -2562, time:  19115
[PASS]  [Pattern  169] Golden:  -2745, Yours:  -2745, time:  19225
[PASS]  [Pattern  170] Golden:  -2928, Yours:  -2928, time:  19335
[PASS]  [Pattern  171] Golden:  -3111, Yours:  -3111, time:  19445
[PASS]  [Pattern  172] Golden:  -3294, Yours:  -3294, time:  19555
[PASS]  [Pattern  173] Golden:  -3477, Yours:  -3477, time:  19665
[PASS]  [Pattern  174] Golden:  -3660, Yours:  -3660, time:  19775
[PASS]  [Pattern  175] Golden:  -3843, Yours:  -3843, time:  19885
[PASS]  [Pattern  176] Golden:  -4026, Yours:  -4026, time:  19995
[PASS]  [Pattern  177] Golden:  -4209, Yours:  -4209, time:  20105
[PASS]  [Pattern  178] Golden:  -4392, Yours:  -4392, time:  20215
[PASS]  [Pattern  179] Golden:  -4575, Yours:  -4575, time:  20325
[PASS]  [Pattern  180] Golden:  -4758, Yours:  -4758, time:  20435
[PASS]  [Pattern  181] Golden:  -4941, Yours:  -4941, time:  20545
[PASS]  [Pattern  182] Golden:  -5124, Yours:  -5124, time:  20655
[PASS]  [Pattern  183] Golden:  -5307, Yours:  -5307, time:  20765
[PASS]  [Pattern  184] Golden:  -5490, Yours:  -5490, time:  20875
[PASS]  [Pattern  185] Golden:  -5673, Yours:  -5673, time:  20985
[PASS]  [Pattern  186] Golden:  -5856, Yours:  -5856, time:  21095
[PASS]  [Pattern  187] Golden:  -6039, Yours:  -6039, time:  21205
[PASS]  [Pattern  188] Golden:  -6222, Yours:  -6222, time:  21315
[PASS]  [Pattern  189] Golden:  -6405, Yours:  -6405, time:  21425
[PASS]  [Pattern  190] Golden:  -6588, Yours:  -6588, time:  21535
[PASS]  [Pattern  191] Golden:  -6771, Yours:  -6771, time:  21645
[PASS]  [Pattern  192] Golden:  -6954, Yours:  -6954, time:  21755
[PASS]  [Pattern  193] Golden:  -7137, Yours:  -7137, time:  21865
[PASS]  [Pattern  194] Golden:  -7320, Yours:  -7320, time:  21975
[PASS]  [Pattern  195] Golden:  -7503, Yours:  -7503, time:  22085
[PASS]  [Pattern  196] Golden:  -7686, Yours:  -7686, time:  22195
[PASS]  [Pattern  197] Golden:  -7869, Yours:  -7869, time:  22305
[PASS]  [Pattern  198] Golden:  -8052, Yours:  -8052, time:  22415
[PASS]  [Pattern  199] Golden:  -8235, Yours:  -8235, time:  22525
[PASS]  [Pattern  200] Golden:  -8418, Yours:  -8418, time:  22635
[PASS]  [Pattern  201] Golden:  -8601, Yours:  -8601, time:  22745
[PASS]  [Pattern  202] Golden:  -8784, Yours:  -8784, time:  22855
[PASS]  [Pattern  203] Golden:  -8967, Yours:  -8967, time:  22965
[PASS]  [Pattern  204] Golden:  -9150, Yours:  -9150, time:  23075
[PASS]  [Pattern  205] Golden:  -9333, Yours:  -9333, time:  23185
[PASS]  [Pattern  206] Golden:  -9516, Yours:  -9516, time:  23295
[PASS]  [Pattern  207] Golden:  -9699, Yours:  -9699, time:  23405
[PASS]  [Pattern  208] Golden:  -9882, Yours:  -9882, time:  23515
[PASS]  [Pattern  209] Golden: -10065, Yours: -10065, time:  23625
[PASS]  [Pattern  210] Golden: -10248, Yours: -10248, time:  23735
[PASS]  [Pattern  211] Golden: -10431, Yours: -10431, time:  23845
[PASS]  [Pattern  212] Golden: -10614, Yours: -10614, time:  23955
[PASS]  [Pattern  213] Golden: -10797, Yours: -10797, time:  24065
[PASS]  [Pattern  214] Golden: -10980, Yours: -10980, time:  24175
[PASS]  [Pattern  215] Golden: -11163, Yours: -11163, time:  24285
[PASS]  [Pattern  216] Golden: -11346, Yours: -11346, time:  24395
[PASS]  [Pattern  217] Golden: -11529, Yours: -11529, time:  24505
[PASS]  [Pattern  218] Golden: -11712, Yours: -11712, time:  24615
[PASS]  [Pattern  219] Golden: -11895, Yours: -11895, time:  24725
[PASS]  [Pattern  220] Golden: -12078, Yours: -12078, time:  24835
[PASS]  [Pattern  221] Golden: -12261, Yours: -12261, time:  24945
[PASS]  [Pattern  222] Golden: -12444, Yours: -12444, time:  25055
[PASS]  [Pattern  223] Golden: -12627, Yours: -12627, time:  25165
[PASS]  [Pattern  224] Golden: -12810, Yours: -12810, time:  25275
[PASS]  [Pattern  225] Golden: -12993, Yours: -12993, time:  25385
[PASS]  [Pattern  226] Golden: -13196, Yours: -13196, time:  25495
[PASS]  [Pattern  227] Golden: -13417, Yours: -13417, time:  25605
[PASS]  [Pattern  228] Golden: -13592, Yours: -13592, time:  25715
[PASS]  [Pattern  229] Golden: -13655, Yours: -13655, time:  25825
[PASS]  [Pattern  230] Golden: -13592, Yours: -13592, time:  25935
[PASS]  [Pattern  231] Golden: -13417, Yours: -13417, time:  26045
[PASS]  [Pattern  232] Golden: -13196, Yours: -13196, time:  26155
[PASS]  [Pattern  233] Golden: -12993, Yours: -12993, time:  26265
[PASS]  [Pattern  234] Golden: -12810, Yours: -12810, time:  26375
[PASS]  [Pattern  235] Golden: -12627, Yours: -12627, time:  26485
[PASS]  [Pattern  236] Golden: -12444, Yours: -12444, time:  26595
[PASS]  [Pattern  237] Golden: -12261, Yours: -12261, time:  26705
[PASS]  [Pattern  238] Golden: -12078, Yours: -12078, time:  26815
[PASS]  [Pattern  239] Golden: -11895, Yours: -11895, time:  26925
[PASS]  [Pattern  240] Golden: -11712, Yours: -11712, time:  27035
[PASS]  [Pattern  241] Golden: -11529, Yours: -11529, time:  27145
[PASS]  [Pattern  242] Golden: -11346, Yours: -11346, time:  27255
[PASS]  [Pattern  243] Golden: -11163, Yours: -11163, time:  27365
[PASS]  [Pattern  244] Golden: -10980, Yours: -10980, time:  27475
[PASS]  [Pattern  245] Golden: -10797, Yours: -10797, time:  27585
[PASS]  [Pattern  246] Golden: -10614, Yours: -10614, time:  27695
[PASS]  [Pattern  247] Golden: -10431, Yours: -10431, time:  27805
[PASS]  [Pattern  248] Golden: -10248, Yours: -10248, time:  27915
[PASS]  [Pattern  249] Golden: -10065, Yours: -10065, time:  28025
[PASS]  [Pattern  250] Golden:  -9882, Yours:  -9882, time:  28135
[PASS]  [Pattern  251] Golden:  -9699, Yours:  -9699, time:  28245
[PASS]  [Pattern  252] Golden:  -9516, Yours:  -9516, time:  28355
[PASS]  [Pattern  253] Golden:  -9333, Yours:  -9333, time:  28465
[PASS]  [Pattern  254] Golden:  -9150, Yours:  -9150, time:  28575
[PASS]  [Pattern  255] Golden:  -8967, Yours:  -8967, time:  28685
[PASS]  [Pattern  256] Golden:  -8784, Yours:  -8784, time:  28795
[PASS]  [Pattern  257] Golden:  -8601, Yours:  -8601, time:  28905
[PASS]  [Pattern  258] Golden:  -8418, Yours:  -8418, time:  29015
[PASS]  [Pattern  259] Golden:  -8235, Yours:  -8235, time:  29125
[PASS]  [Pattern  260] Golden:  -8052, Yours:  -8052, time:  29235
[PASS]  [Pattern  261] Golden:  -7869, Yours:  -7869, time:  29345
[PASS]  [Pattern  262] Golden:  -7686, Yours:  -7686, time:  29455
[PASS]  [Pattern  263] Golden:  -7503, Yours:  -7503, time:  29565
[PASS]  [Pattern  264] Golden:  -7320, Yours:  -7320, time:  29675
[PASS]  [Pattern  265] Golden:  -7137, Yours:  -7137, time:  29785
[PASS]  [Pattern  266] Golden:  -6954, Yours:  -6954, time:  29895
[PASS]  [Pattern  267] Golden:  -6771, Yours:  -6771, time:  30005
[PASS]  [Pattern  268] Golden:  -6588, Yours:  -6588, time:  30115
[PASS]  [Pattern  269] Golden:  -6405, Yours:  -6405, time:  30225
[PASS]  [Pattern  270] Golden:  -6222, Yours:  -6222, time:  30335
[PASS]  [Pattern  271] Golden:  -6039, Yours:  -6039, time:  30445
[PASS]  [Pattern  272] Golden:  -5856, Yours:  -5856, time:  30555
[PASS]  [Pattern  273] Golden:  -5673, Yours:  -5673, time:  30665
[PASS]  [Pattern  274] Golden:  -5490, Yours:  -5490, time:  30775
[PASS]  [Pattern  275] Golden:  -5307, Yours:  -5307, time:  30885
[PASS]  [Pattern  276] Golden:  -5124, Yours:  -5124, time:  30995
[PASS]  [Pattern  277] Golden:  -4941, Yours:  -4941, time:  31105
[PASS]  [Pattern  278] Golden:  -4758, Yours:  -4758, time:  31215
[PASS]  [Pattern  279] Golden:  -4575, Yours:  -4575, time:  31325
[PASS]  [Pattern  280] Golden:  -4392, Yours:  -4392, time:  31435
[PASS]  [Pattern  281] Golden:  -4209, Yours:  -4209, time:  31545
[PASS]  [Pattern  282] Golden:  -4026, Yours:  -4026, time:  31655
[PASS]  [Pattern  283] Golden:  -3843, Yours:  -3843, time:  31765
[PASS]  [Pattern  284] Golden:  -3660, Yours:  -3660, time:  31875
[PASS]  [Pattern  285] Golden:  -3477, Yours:  -3477, time:  31985
[PASS]  [Pattern  286] Golden:  -3294, Yours:  -3294, time:  32095
[PASS]  [Pattern  287] Golden:  -3111, Yours:  -3111, time:  32205
[PASS]  [Pattern  288] Golden:  -2928, Yours:  -2928, time:  32315
[PASS]  [Pattern  289] Golden:  -2745, Yours:  -2745, time:  32425
[PASS]  [Pattern  290] Golden:  -2562, Yours:  -2562, time:  32535
[PASS]  [Pattern  291] Golden:  -2379, Yours:  -2379, time:  32645
[PASS]  [Pattern  292] Golden:  -2196, Yours:  -2196, time:  32755
[PASS]  [Pattern  293] Golden:  -2013, Yours:  -2013, time:  32865
[PASS]  [Pattern  294] Golden:  -1830, Yours:  -1830, time:  32975
[PASS]  [Pattern  295] Golden:  -1647, Yours:  -1647, time:  33085
[PASS]  [Pattern  296] Golden:  -1464, Yours:  -1464, time:  33195
[PASS]  [Pattern  297] Golden:  -1281, Yours:  -1281, time:  33305
[PASS]  [Pattern  298] Golden:  -1098, Yours:  -1098, time:  33415
[PASS]  [Pattern  299] Golden:   -915, Yours:   -915, time:  33525
[PASS]  [Pattern  300] Golden:   -732, Yours:   -732, time:  33635
[PASS]  [Pattern  301] Golden:   -549, Yours:   -549, time:  33745
[PASS]  [Pattern  302] Golden:   -366, Yours:   -366, time:  33855
[PASS]  [Pattern  303] Golden:   -183, Yours:   -183, time:  33965
[PASS]  [Pattern  304] Golden:      0, Yours:      0, time:  34075
[PASS]  [Pattern  305] Golden:    183, Yours:    183, time:  34185
[PASS]  [Pattern  306] Golden:    366, Yours:    366, time:  34295
[PASS]  [Pattern  307] Golden:    549, Yours:    549, time:  34405
[PASS]  [Pattern  308] Golden:    732, Yours:    732, time:  34515
[PASS]  [Pattern  309] Golden:    915, Yours:    915, time:  34625
[PASS]  [Pattern  310] Golden:   1098, Yours:   1098, time:  34735
[PASS]  [Pattern  311] Golden:   1281, Yours:   1281, time:  34845
[PASS]  [Pattern  312] Golden:   1464, Yours:   1464, time:  34955
[PASS]  [Pattern  313] Golden:   1647, Yours:   1647, time:  35065
[PASS]  [Pattern  314] Golden:   1830, Yours:   1830, time:  35175
[PASS]  [Pattern  315] Golden:   2013, Yours:   2013, time:  35285
[PASS]  [Pattern  316] Golden:   2196, Yours:   2196, time:  35395
[PASS]  [Pattern  317] Golden:   2379, Yours:   2379, time:  35505
[PASS]  [Pattern  318] Golden:   2562, Yours:   2562, time:  35615
[PASS]  [Pattern  319] Golden:   2745, Yours:   2745, time:  35725
[PASS]  [Pattern  320] Golden:   2928, Yours:   2928, time:  35835
[PASS]  [Pattern  321] Golden:   3111, Yours:   3111, time:  35945
[PASS]  [Pattern  322] Golden:   3294, Yours:   3294, time:  36055
[PASS]  [Pattern  323] Golden:   3477, Yours:   3477, time:  36165
[PASS]  [Pattern  324] Golden:   3660, Yours:   3660, time:  36275
[PASS]  [Pattern  325] Golden:   3843, Yours:   3843, time:  36385
[PASS]  [Pattern  326] Golden:   4026, Yours:   4026, time:  36495
[PASS]  [Pattern  327] Golden:   4209, Yours:   4209, time:  36605
[PASS]  [Pattern  328] Golden:   4392, Yours:   4392, time:  36715
[PASS]  [Pattern  329] Golden:   4575, Yours:   4575, time:  36825
[PASS]  [Pattern  330] Golden:   4758, Yours:   4758, time:  36935
[PASS]  [Pattern  331] Golden:   4941, Yours:   4941, time:  37045
[PASS]  [Pattern  332] Golden:   5124, Yours:   5124, time:  37155
[PASS]  [Pattern  333] Golden:   5307, Yours:   5307, time:  37265
[PASS]  [Pattern  334] Golden:   5490, Yours:   5490, time:  37375
[PASS]  [Pattern  335] Golden:   5673, Yours:   5673, time:  37485
[PASS]  [Pattern  336] Golden:   5856, Yours:   5856, time:  37595
[PASS]  [Pattern  337] Golden:   6039, Yours:   6039, time:  37705
[PASS]  [Pattern  338] Golden:   6222, Yours:   6222, time:  37815
[PASS]  [Pattern  339] Golden:   6405, Yours:   6405, time:  37925
[PASS]  [Pattern  340] Golden:   6588, Yours:   6588, time:  38035
[PASS]  [Pattern  341] Golden:   6771, Yours:   6771, time:  38145
[PASS]  [Pattern  342] Golden:   6954, Yours:   6954, time:  38255
[PASS]  [Pattern  343] Golden:   7137, Yours:   7137, time:  38365
[PASS]  [Pattern  344] Golden:   7320, Yours:   7320, time:  38475
[PASS]  [Pattern  345] Golden:   7503, Yours:   7503, time:  38585
[PASS]  [Pattern  346] Golden:   7686, Yours:   7686, time:  38695
[PASS]  [Pattern  347] Golden:   7869, Yours:   7869, time:  38805
[PASS]  [Pattern  348] Golden:   8052, Yours:   8052, time:  38915
[PASS]  [Pattern  349] Golden:   8235, Yours:   8235, time:  39025
[PASS]  [Pattern  350] Golden:   8418, Yours:   8418, time:  39135
[PASS]  [Pattern  351] Golden:   8601, Yours:   8601, time:  39245
[PASS]  [Pattern  352] Golden:   8784, Yours:   8784, time:  39355
[PASS]  [Pattern  353] Golden:   8967, Yours:   8967, time:  39465
[PASS]  [Pattern  354] Golden:   9150, Yours:   9150, time:  39575
[PASS]  [Pattern  355] Golden:   9333, Yours:   9333, time:  39685
[PASS]  [Pattern  356] Golden:   9516, Yours:   9516, time:  39795
[PASS]  [Pattern  357] Golden:   9699, Yours:   9699, time:  39905
[PASS]  [Pattern  358] Golden:   9882, Yours:   9882, time:  40015
[PASS]  [Pattern  359] Golden:  10065, Yours:  10065, time:  40125
[PASS]  [Pattern  360] Golden:  10248, Yours:  10248, time:  40235
[PASS]  [Pattern  361] Golden:  10431, Yours:  10431, time:  40345
[PASS]  [Pattern  362] Golden:  10614, Yours:  10614, time:  40455
[PASS]  [Pattern  363] Golden:  10797, Yours:  10797, time:  40565
[PASS]  [Pattern  364] Golden:  10980, Yours:  10980, time:  40675
[PASS]  [Pattern  365] Golden:  11163, Yours:  11163, time:  40785
[PASS]  [Pattern  366] Golden:  11346, Yours:  11346, time:  40895
[PASS]  [Pattern  367] Golden:  11529, Yours:  11529, time:  41005
[PASS]  [Pattern  368] Golden:  11712, Yours:  11712, time:  41115
[PASS]  [Pattern  369] Golden:  11895, Yours:  11895, time:  41225
[PASS]  [Pattern  370] Golden:  12078, Yours:  12078, time:  41335
[PASS]  [Pattern  371] Golden:  12261, Yours:  12261, time:  41445
[PASS]  [Pattern  372] Golden:  12444, Yours:  12444, time:  41555
[PASS]  [Pattern  373] Golden:  12627, Yours:  12627, time:  41665
[PASS]  [Pattern  374] Golden:  12810, Yours:  12810, time:  41775
[PASS]  [Pattern  375] Golden:  12993, Yours:  12993, time:  41885
[PASS]  [Pattern  376] Golden:  13196, Yours:  13196, time:  41995
[PASS]  [Pattern  377] Golden:  13417, Yours:  13417, time:  42105
[PASS]  [Pattern  378] Golden:  13592, Yours:  13592, time:  42215
[PASS]  [Pattern  379] Golden:  13655, Yours:  13655, time:  42325
[PASS]  [Pattern  380] Golden:  13592, Yours:  13592, time:  42435
[PASS]  [Pattern  381] Golden:  13417, Yours:  13417, time:  42545
[PASS]  [Pattern  382] Golden:  13196, Yours:  13196, time:  42655
