Lab3/report/simulation.log
#-----------------------------------------------------------
# xsim v2022.1 (64-bit)
# SW Build 3526262 on Mon Apr 18 15:47:01 MDT 2022
# IP Build 3524634 on Mon Apr 18 20:55:01 MDT 2022
# Start of session at: Wed Mar 19 07:24:53 2025
# Process ID: 4701
# Current directory: /home/ubuntu/Lab3
# Command line: xsim -mode tcl -source {xsim.dir/fir_tb_elab/xsim_script.tcl}
# Log file: /home/ubuntu/Lab3/xsim.log
# Journal file: /home/ubuntu/Lab3/xsim.jou
# Running On: ubuntu2004, OS: Linux, CPU Frequency: 2496.002 MHz, CPU Physical cores: 2, Host memory: 10424 MB
#-----------------------------------------------------------
source xsim.dir/fir_tb_elab/xsim_script.tcl
# xsim {fir_tb_elab} -autoloadwcfg -runall
Time resolution is 1 ps
run -all
============ Start simualtion ============
============== Test 1 Start ==============
[PASS]  exp =     0, rdata =     0, time:    285
[PASS]  exp =   -10, rdata =   -10, time:    295
[PASS]  exp =    -9, rdata =    -9, time:    305
[PASS]  exp =    23, rdata =    23, time:    315
[PASS]  exp =    56, rdata =    56, time:    325
[PASS]  exp =    63, rdata =    63, time:    335
[PASS]  exp =    56, rdata =    56, time:    345
[PASS]  exp =    23, rdata =    23, time:    355
[PASS]  exp =    -9, rdata =    -9, time:    365
[PASS]  exp =   -10, rdata =   -10, time:    375
[PASS]  exp =     0, rdata =     0, time:    385
[PASS]  [Pattern    0] Golden:      0, Yours:      0, time:    545
[PASS]  [Pattern    1] Golden:    -10, Yours:    -10, time:    655
[PASS]  exp =    -1, rdata =    -1, time:    665
[PASS]  exp =    -1, rdata =    -1, time:    675
[PASS]  exp =    -1, rdata =    -1, time:    685
[PASS]  exp =    -1, rdata =    -1, time:    695
[PASS]  exp =    -1, rdata =    -1, time:    705
[PASS]  exp =    -1, rdata =    -1, time:    715
[PASS]  exp =    -1, rdata =    -1, time:    725
[PASS]  exp =    -1, rdata =    -1, time:    735
[PASS]  exp =    -1, rdata =    -1, time:    745
[PASS]  exp =    -1, rdata =    -1, time:    755
[PASS]  [Pattern    2] Golden:    -29, Yours:    -29, time:    765
[PASS]  exp =    -1, rdata =    -1, time:    765
[PASS]  exp =     0, rdata =     0, time:    815
[PASS]  exp =   600, rdata =   600, time:    865
[PASS]  [Pattern    3] Golden:    -25, Yours:    -25, time:    875
[PASS]  [Pattern    4] Golden:     35, Yours:     35, time:    985
[PASS]  [Pattern    5] Golden:    158, Yours:    158, time:   1095
[PASS]  [Pattern    6] Golden:    337, Yours:    337, time:   1205
[PASS]  [Pattern    7] Golden:    539, Yours:    539, time:   1315
[PASS]  [Pattern    8] Golden:    732, Yours:    732, time:   1425
[PASS]  [Pattern    9] Golden:    915, Yours:    915, time:   1535
[PASS]  [Pattern   10] Golden:   1098, Yours:   1098, time:   1645
[PASS]  [Pattern   11] Golden:   1281, Yours:   1281, time:   1755
[PASS]  [Pattern   12] Golden:   1464, Yours:   1464, time:   1865
[PASS]  [Pattern   13] Golden:   1647, Yours:   1647, time:   1975
[PASS]  [Pattern   14] Golden:   1830, Yours:   1830, time:   2085
[PASS]  [Pattern   15] Golden:   2013, Yours:   2013, time:   2195
[PASS]  [Pattern   16] Golden:   2196, Yours:   2196, time:   2305
[PASS]  [Pattern   17] Golden:   2379, Yours:   2379, time:   2415
[PASS]  [Pattern   18] Golden:   2562, Yours:   2562, time:   2525
[PASS]  [Pattern   19] Golden:   2745, Yours:   2745, time:   2635
[PASS]  [Pattern   20] Golden:   2928, Yours:   2928, time:   2745
[PASS]  [Pattern   21] Golden:   3111, Yours:   3111, time:   2855
[PASS]  [Pattern   22] Golden:   3294, Yours:   3294, time:   2965
[PASS]  [Pattern   23] Golden:   3477, Yours:   3477, time:   3075
[PASS]  [Pattern   24] Golden:   3660, Yours:   3660, time:   3185
[PASS]  [Pattern   25] Golden:   3843, Yours:   3843, time:   3295
[PASS]  [Pattern   26] Golden:   4026, Yours:   4026, time:   3405
[PASS]  [Pattern   27] Golden:   4209, Yours:   4209, time:   3515
[PASS]  [Pattern   28] Golden:   4392, Yours:   4392, time:   3625
[PASS]  [Pattern   29] Golden:   4575, Yours:   4575, time:   3735
[PASS]  [Pattern   30] Golden:   4758, Yours:   4758, time:   3845
[PASS]  [Pattern   31] Golden:   4941, Yours:   4941, time:   3955
[PASS]  [Pattern   32] Golden:   5124, Yours:   5124, time:   4065
[PASS]  [Pattern   33] Golden:   5307, Yours:   5307, time:   4175
[PASS]  [Pattern   34] Golden:   5490, Yours:   5490, time:   4285
[PASS]  [Pattern   35] Golden:   5673, Yours:   5673, time:   4395
[PASS]  [Pattern   36] Golden:   5856, Yours:   5856, time:   4505
[PASS]  [Pattern   37] Golden:   6039, Yours:   6039, time:   4615
[PASS]  [Pattern   38] Golden:   6222, Yours:   6222, time:   4725
[PASS]  [Pattern   39] Golden:   6405, Yours:   6405, time:   4835
[PASS]  [Pattern   40] Golden:   6588, Yours:   6588, time:   4945
[PASS]  [Pattern   41] Golden:   6771, Yours:   6771, time:   5055
[PASS]  [Pattern   42] Golden:   6954, Yours:   6954, time:   5165
[PASS]  [Pattern   43] Golden:   7137, Yours:   7137, time:   5275
[PASS]  [Pattern   44] Golden:   7320, Yours:   7320, time:   5385
[PASS]  [Pattern   45] Golden:   7503, Yours:   7503, time:   5495
[PASS]  [Pattern   46] Golden:   7686, Yours:   7686, time:   5605
[PASS]  [Pattern   47] Golden:   7869, Yours:   7869, time:   5715
[PASS]  [Pattern   48] Golden:   8052, Yours:   8052, time:   5825
[PASS]  [Pattern   49] Golden:   8235, Yours:   8235, time:   5935
[PASS]  [Pattern   50] Golden:   8418, Yours:   8418, time:   6045
[PASS]  [Pattern   51] Golden:   8601, Yours:   8601, time:   6155
[PASS]  [Pattern   52] Golden:   8784, Yours:   8784, time:   6265
[PASS]  [Pattern   53] Golden:   8967, Yours:   8967, time:   6375
[PASS]  [Pattern   54] Golden:   9150, Yours:   9150, time:   6485
[PASS]  [Pattern   55] Golden:   9333, Yours:   9333, time:   6595
[PASS]  [Pattern   56] Golden:   9516, Yours:   9516, time:   6705
[PASS]  [Pattern   57] Golden:   9699, Yours:   9699, time:   6815
[PASS]  [Pattern   58] Golden:   9882, Yours:   9882, time:   6925
[PASS]  [Pattern   59] Golden:  10065, Yours:  10065, time:   7035
[PASS]  [Pattern   60] Golden:  10248, Yours:  10248, time:   7145
[PASS]  [Pattern   61] Golden:  10431, Yours:  10431, time:   7255
[PASS]  [Pattern   62] Golden:  10614, Yours:  10614, time:   7365
[PASS]  [Pattern   63] Golden:  10797, Yours:  10797, time:   7475
[PASS]  [Pattern   64] Golden:  10980, Yours:  10980, time:   7585
[PASS]  [Pattern   65] Golden:  11163, Yours:  11163, time:   7695
[PASS]  [Pattern   66] Golden:  11346, Yours:  11346, time:   7805
[PASS]  [Pattern   67] Golden:  11529, Yours:  11529, time:   7915
[PASS]  [Pattern   68] Golden:  11712, Yours:  11712, time:   8025
[PASS]  [Pattern   69] Golden:  11895, Yours:  11895, time:   8135
[PASS]  [Pattern   70] Golden:  12078, Yours:  12078, time:   8245
[PASS]  [Pattern   71] Golden:  12261, Yours:  12261, time:   8355
[PASS]  [Pattern   72] Golden:  12444, Yours:  12444, time:   8465
[PASS]  [Pattern   73] Golden:  12627, Yours:  12627, time:   8575
[PASS]  [Pattern   74] Golden:  12810, Yours:  12810, time:   8685
[PASS]  [Pattern   75] Golden:  12993, Yours:  12993, time:   8795
[PASS]  [Pattern   76] Golden:  13196, Yours:  13196, time:   8905
[PASS]  [Pattern   77] Golden:  13417, Yours:  13417, time:   9015
[PASS]  [Pattern   78] Golden:  13592, Yours:  13592, time:   9125
[PASS]  [Pattern   79] Golden:  13655, Yours:  13655, time:   9235
[PASS]  [Pattern   80] Golden:  13592, Yours:  13592, time:   9345
[PASS]  [Pattern   81] Golden:  13417, Yours:  13417, time:   9455
[PASS]  [Pattern   82] Golden:  13196, Yours:  13196, time:   9565
[PASS]  [Pattern   83] Golden:  12993, Yours:  12993, time:   9675
[PASS]  [Pattern   84] Golden:  12810, Yours:  12810, time:   9785
[PASS]  [Pattern   85] Golden:  12627, Yours:  12627, time:   9895
[PASS]  [Pattern   86] Golden:  12444, Yours:  12444, time:  10005
[PASS]  [Pattern   87] Golden:  12261, Yours:  12261, time:  10115
[PASS]  [Pattern   88] Golden:  12078, Yours:  12078, time:  10225
[PASS]  [Pattern   89] Golden:  11895, Yours:  11895, time:  10335
[PASS]  [Pattern   90] Golden:  11712, Yours:  11712, time:  10445
[PASS]  [Pattern   91] Golden:  11529, Yours:  11529, time:  10555
[PASS]  [Pattern   92] Golden:  11346, Yours:  11346, time:  10665
[PASS]  [Pattern   93] Golden:  11163, Yours:  11163, time:  10775
[PASS]  [Pattern   94] Golden:  10980, Yours:  10980, time:  10885
[PASS]  [Pattern   95] Golden:  10797, Yours:  10797, time:  10995
[PASS]  [Pattern   96] Golden:  10614, Yours:  10614, time:  11105
[PASS]  [Pattern   97] Golden:  10431, Yours:  10431, time:  11215
[PASS]  [Pattern   98] Golden:  10248, Yours:  10248, time:  11325
[PASS]  [Pattern   99] Golden:  10065, Yours:  10065, time:  11435
[PASS]  [Pattern  100] Golden:   9882, Yours:   9882, time:  11545
[PASS]  [Pattern  101] Golden:   9699, Yours:   9699, time:  11655
[PASS]  [Pattern  102] Golden:   9516, Yours:   9516, time:  11765
[PASS]  [Pattern  103] Golden:   9333, Yours:   9333, time:  11875
[PASS]  [Pattern  104] Golden:   9150, Yours:   9150, time:  11985
[PASS]  [Pattern  105] Golden:   8967, Yours:   8967, time:  12095
[PASS]  [Pattern  106] Golden:   8784, Yours:   8784, time:  12205
[PASS]  [Pattern  107] Golden:   8601, Yours:   8601, time:  12315
[PASS]  [Pattern  108] Golden:   8418, Yours:   8418, time:  12425
[PASS]  [Pattern  109] Golden:   8235, Yours:   8235, time:  12535
[PASS]  [Pattern  110] Golden:   8052, Yours:   8052, time:  12645
[PASS]  [Pattern  111] Golden:   7869, Yours:   7869, time:  12755
[PASS]  [Pattern  112] Golden:   7686, Yours:   7686, time:  12865
[PASS]  [Pattern  113] Golden:   7503, Yours:   7503, time:  12975
[PASS]  [Pattern  114] Golden:   7320, Yours:   7320, time:  13085
[PASS]  [Pattern  115] Golden:   7137, Yours:   7137, time:  13195
[PASS]  [Pattern  116] Golden:   6954, Yours:   6954, time:  13305
[PASS]  [Pattern  117] Golden:   6771, Yours:   6771, time:  13415
[PASS]  [Pattern  118] Golden:   6588, Yours:   6588, time:  13525
[PASS]  [Pattern  119] Golden:   6405, Yours:   6405, time:  13635
[PASS]  [Pattern  120] Golden:   6222, Yours:   6222, time:  13745
[PASS]  [Pattern  121] Golden:   6039, Yours:   6039, time:  13855
[PASS]  [Pattern  122] Golden:   5856, Yours:   5856, time:  13965
[PASS]  [Pattern  123] Golden:   5673, Yours:   5673, time:  14075
[PASS]  [Pattern  124] Golden:   5490, Yours:   5490, time:  14185
[PASS]  [Pattern  125] Golden:   5307, Yours:   5307, time:  14295
[PASS]  [Pattern  126] Golden:   5124, Yours:   5124, time:  14405
[PASS]  [Pattern  127] Golden:   4941, Yours:   4941, time:  14515
[PASS]  [Pattern  128] Golden:   4758, Yours:   4758, time:  14625
[PASS]  [Pattern  129] Golden:   4575, Yours:   4575, time:  14735
[PASS]  [Pattern  130] Golden:   4392, Yours:   4392, time:  14845
[PASS]  [Pattern  131] Golden:   4209, Yours:   4209, time:  14955
[PASS]  [Pattern  132] Golden:   4026, Yours:   4026, time:  15065
[PASS]  [Pattern  133] Golden:   3843, Yours:   3843, time:  15175
[PASS]  [Pattern  134] Golden:   3660, Yours:   3660, time:  15285
[PASS]  [Pattern  135] Golden:   3477, Yours:   3477, time:  15395
[PASS]  [Pattern  136] Golden:   3294, Yours:   3294, time:  15505
[PASS]  [Pattern  137] Golden:   3111, Yours:   3111, time:  15615
[PASS]  [Pattern  138] Golden:   2928, Yours:   2928, time:  15725
[PASS]  [Pattern  139] Golden:   2745, Yours:   2745, time:  15835
[PASS]  [Pattern  140] Golden:   2562, Yours:   2562, time:  15945
[PASS]  [Pattern  141] Golden:   2379, Yours:   2379, time:  16055
[PASS]  [Pattern  142] Golden:   2196, Yours:   2196, time:  16165
[PASS]  [Pattern  143] Golden:   2013, Yours:   2013, time:  16275
[PASS]  [Pattern  144] Golden:   1830, Yours:   1830, time:  16385
[PASS]  [Pattern  145] Golden:   1647, Yours:   1647, time:  16495
[PASS]  [Pattern  146] Golden:   1464, Yours:   1464, time:  16605
[PASS]  [Pattern  147] Golden:   1281, Yours:   1281, time:  16715
[PASS]  [Pattern  148] Golden:   1098, Yours:   1098, time:  16825
[PASS]  [Pattern  149] Golden:    915, Yours:    915, time:  16935
[PASS]  [Pattern  150] Golden:    732, Yours:    732, time:  17045
[PASS]  [Pattern  151] Golden:    549, Yours:    549, time:  17155
[PASS]  [Pattern  152] Golden:    366, Yours:    366, time:  17265
[PASS]  [Pattern  153] Golden:    183, Yours:    183, time:  17375
[PASS]  [Pattern  154] Golden:      0, Yours:      0, time:  17485
[PASS]  [Pattern  155] Golden:   -183, Yours:   -183, time:  17595
[PASS]  [Pattern  156] Golden:   -366, Yours:   -366, time:  17705
[PASS]  [Pattern  157] Golden:   -549, Yours:   -549, time:  17815
[PASS]  [Pattern  158] Golden:   -732, Yours:   -732, time:  17925
[PASS]  [Pattern  159] Golden:   -915, Yours:   -915, time:  18035
[PASS]  [Pattern  160] Golden:  -1098, Yours:  -1098, time:  18145
[PASS]  [Pattern  161] Golden:  -1281, Yours:  -1281, time:  18255
[PASS]  [Pattern  162] Golden:  -1464, Yours:  -1464, time:  18365
[PASS]  [Pattern  163] Golden:  -1647, Yours:  -1647, time:  18475
[PASS]  [Pattern  164] Golden:  -1830, Yours:  -1830, time:  18585
[PASS]  [Pattern  165] Golden:  -2013, Yours:  -2013, time:  18695
[PASS]  [Pattern  166] Golden:  -2196, Yours:  -2196, time:  18805
[PASS]  [Pattern  167] Golden:  -2379, Yours:  -2379, time:  18915
[PASS]  [Pattern  168] Golden:  -2562, Yours:  -2562, time:  19025
[PASS]  [Pattern  169] Golden:  -2745, Yours:  -2745, time:  19135
[PASS]  [Pattern  170] Golden:  -2928, Yours:  -2928, time:  19245
[PASS]  [Pattern  171] Golden:  -3111, Yours:  -3111, time:  19355
[PASS]  [Pattern  172] Golden:  -3294, Yours:  -3294, time:  19465
[PASS]  [Pattern  173] Golden:  -3477, Yours:  -3477, time:  19575
[PASS]  [Pattern  174] Golden:  -3660, Yours:  -3660, time:  19685
[PASS]  [Pattern  175] Golden:  -3843, Yours:  -3843, time:  19795
[PASS]  [Pattern  176] Golden:  -4026, Yours:  -4026, time:  19905
[PASS]  [Pattern  177] Golden:  -4209, Yours:  -4209, time:  20015
[PASS]  [Pattern  178] Golden:  -4392, Yours:  -4392, time:  20125
[PASS]  [Pattern  179] Golden:  -4575, Yours:  -4575, time:  20235
[PASS]  [Pattern  180] Golden:  -4758, Yours:  -4758, time:  20345
[PASS]  [Pattern  181] Golden:  -4941, Yours:  -4941, time:  20455
[PASS]  [Pattern  182] Golden:  -5124, Yours:  -5124, time:  20565
[PASS]  [Pattern  183] Golden:  -5307, Yours:  -5307, time:  20675
[PASS]  [Pattern  184] Golden:  -5490, Yours:  -5490, time:  20785
[PASS]  [Pattern  185] Golden:  -5673, Yours:  -5673, time:  20895
[PASS]  [Pattern  186] Golden:  -5856, Yours:  -5856, time:  21005
[PASS]  [Pattern  187] Golden:  -6039, Yours:  -6039, time:  21115
[PASS]  [Pattern  188] Golden:  -6222, Yours:  -6222, time:  21225
[PASS]  [Pattern  189] Golden:  -6405, Yours:  -6405, time:  21335
[PASS]  [Pattern  190] Golden:  -6588, Yours:  -6588, time:  21445
[PASS]  [Pattern  191] Golden:  -6771, Yours:  -6771, time:  21555
[PASS]  [Pattern  192] Golden:  -6954, Yours:  -6954, time:  21665
[PASS]  [Pattern  193] Golden:  -7137, Yours:  -7137, time:  21775
[PASS]  [Pattern  194] Golden:  -7320, Yours:  -7320, time:  21885
[PASS]  [Pattern  195] Golden:  -7503, Yours:  -7503, time:  21995
[PASS]  [Pattern  196] Golden:  -7686, Yours:  -7686, time:  22105
[PASS]  [Pattern  197] Golden:  -7869, Yours:  -7869, time:  22215
[PASS]  [Pattern  198] Golden:  -8052, Yours:  -8052, time:  22325
[PASS]  [Pattern  199] Golden:  -8235, Yours:  -8235, time:  22435
[PASS]  [Pattern  200] Golden:  -8418, Yours:  -8418, time:  22545
[PASS]  [Pattern  201] Golden:  -8601, Yours:  -8601, time:  22655
[PASS]  [Pattern  202] Golden:  -8784, Yours:  -8784, time:  22765
[PASS]  [Pattern  203] Golden:  -8967, Yours:  -8967, time:  22875
[PASS]  [Pattern  204] Golden:  -9150, Yours:  -9150, time:  22985
[PASS]  [Pattern  205] Golden:  -9333, Yours:  -9333, time:  23095
[PASS]  [Pattern  206] Golden:  -9516, Yours:  -9516, time:  23205
[PASS]  [Pattern  207] Golden:  -9699, Yours:  -9699, time:  23315
[PASS]  [Pattern  208] Golden:  -9882, Yours:  -9882, time:  23425
[PASS]  [Pattern  209] Golden: -10065, Yours: -10065, time:  23535
[PASS]  [Pattern  210] Golden: -10248, Yours: -10248, time:  23645
[PASS]  [Pattern  211] Golden: -10431, Yours: -10431, time:  23755
[PASS]  [Pattern  212] Golden: -10614, Yours: -10614, time:  23865
[PASS]  [Pattern  213] Golden: -10797, Yours: -10797, time:  23975
[PASS]  [Pattern  214] Golden: -10980, Yours: -10980, time:  24085
[PASS]  [Pattern  215] Golden: -11163, Yours: -11163, time:  24195
[PASS]  [Pattern  216] Golden: -11346, Yours: -11346, time:  24305
[PASS]  [Pattern  217] Golden: -11529, Yours: -11529, time:  24415
[PASS]  [Pattern  218] Golden: -11712, Yours: -11712, time:  24525
[PASS]  [Pattern  219] Golden: -11895, Yours: -11895, time:  24635
[PASS]  [Pattern  220] Golden: -12078, Yours: -12078, time:  24745
[PASS]  [Pattern  221] Golden: -12261, Yours: -12261, time:  24855
[PASS]  [Pattern  222] Golden: -12444, Yours: -12444, time:  24965
[PASS]  [Pattern  223] Golden: -12627, Yours: -12627, time:  25075
[PASS]  [Pattern  224] Golden: -12810, Yours: -12810, time:  25185
[PASS]  [Pattern  225] Golden: -12993, Yours: -12993, time:  25295
[PASS]  [Pattern  226] Golden: -13196, Yours: -13196, time:  25405
[PASS]  [Pattern  227] Golden: -13417, Yours: -13417, time:  25515
[PASS]  [Pattern  228] Golden: -13592, Yours: -13592, time:  25625
[PASS]  [Pattern  229] Golden: -13655, Yours: -13655, time:  25735
[PASS]  [Pattern  230] Golden: -13592, Yours: -13592, time:  25845
[PASS]  [Pattern  231] Golden: -13417, Yours: -13417, time:  25955
[PASS]  [Pattern  232] Golden: -13196, Yours: -13196, time:  26065
[PASS]  [Pattern  233] Golden: -12993, Yours: -12993, time:  26175
[PASS]  [Pattern  234] Golden: -12810, Yours: -12810, time:  26285
[PASS]  [Pattern  235] Golden: -12627, Yours: -12627, time:  26395
[PASS]  [Pattern  236] Golden: -12444, Yours: -12444, time:  26505
[PASS]  [Pattern  237] Golden: -12261, Yours: -12261, time:  26615
[PASS]  [Pattern  238] Golden: -12078, Yours: -12078, time:  26725
[PASS]  [Pattern  239] Golden: -11895, Yours: -11895, time:  26835
[PASS]  [Pattern  240] Golden: -11712, Yours: -11712, time:  26945
[PASS]  [Pattern  241] Golden: -11529, Yours: -11529, time:  27055
[PASS]  [Pattern  242] Golden: -11346, Yours: -11346, time:  27165
[PASS]  [Pattern  243] Golden: -11163, Yours: -11163, time:  27275
[PASS]  [Pattern  244] Golden: -10980, Yours: -10980, time:  27385
[PASS]  [Pattern  245] Golden: -10797, Yours: -10797, time:  27495
[PASS]  [Pattern  246] Golden: -10614, Yours: -10614, time:  27605
[PASS]  [Pattern  247] Golden: -10431, Yours: -10431, time:  27715
[PASS]  [Pattern  248] Golden: -10248, Yours: -10248, time:  27825
[PASS]  [Pattern  249] Golden: -10065, Yours: -10065, time:  27935
[PASS]  [Pattern  250] Golden:  -9882, Yours:  -9882, time:  28045
[PASS]  [Pattern  251] Golden:  -9699, Yours:  -9699, time:  28155
[PASS]  [Pattern  252] Golden:  -9516, Yours:  -9516, time:  28265
[PASS]  [Pattern  253] Golden:  -9333, Yours:  -9333, time:  28375
[PASS]  [Pattern  254] Golden:  -9150, Yours:  -9150, time:  28485
[PASS]  [Pattern  255] Golden:  -8967, Yours:  -8967, time:  28595
[PASS]  [Pattern  256] Golden:  -8784, Yours:  -8784, time:  28705
[PASS]  [Pattern  257] Golden:  -8601, Yours:  -8601, time:  28815
[PASS]  [Pattern  258] Golden:  -8418, Yours:  -8418, time:  28925
[PASS]  [Pattern  259] Golden:  -8235, Yours:  -8235, time:  29035
[PASS]  [Pattern  260] Golden:  -8052, Yours:  -8052, time:  29145
[PASS]  [Pattern  261] Golden:  -7869, Yours:  -7869, time:  29255
[PASS]  [Pattern  262] Golden:  -7686, Yours:  -7686, time:  29365
[PASS]  [Pattern  263] Golden:  -7503, Yours:  -7503, time:  29475
[PASS]  [Pattern  264] Golden:  -7320, Yours:  -7320, time:  29585
[PASS]  [Pattern  265] Golden:  -7137, Yours:  -7137, time:  29695
[PASS]  [Pattern  266] Golden:  -6954, Yours:  -6954, time:  29805
[PASS]  [Pattern  267] Golden:  -6771, Yours:  -6771, time:  29915
[PASS]  [Pattern  268] Golden:  -6588, Yours:  -6588, time:  30025
[PASS]  [Pattern  269] Golden:  -6405, Yours:  -6405, time:  30135
[PASS]  [Pattern  270] Golden:  -6222, Yours:  -6222, time:  30245
[PASS]  [Pattern  271] Golden:  -6039, Yours:  -6039, time:  30355
[PASS]  [Pattern  272] Golden:  -5856, Yours:  -5856, time:  30465
[PASS]  [Pattern  273] Golden:  -5673, Yours:  -5673, time:  30575
[PASS]  [Pattern  274] Golden:  -5490, Yours:  -5490, time:  30685
[PASS]  [Pattern  275] Golden:  -5307, Yours:  -5307, time:  30795
[PASS]  [Pattern  276] Golden:  -5124, Yours:  -5124, time:  30905
[PASS]  [Pattern  277] Golden:  -4941, Yours:  -4941, time:  31015
[PASS]  [Pattern  278] Golden:  -4758, Yours:  -4758, time:  31125
[PASS]  [Pattern  279] Golden:  -4575, Yours:  -4575, time:  31235
[PASS]  [Pattern  280] Golden:  -4392, Yours:  -4392, time:  31345
[PASS]  [Pattern  281] Golden:  -4209, Yours:  -4209, time:  31455
[PASS]  [Pattern  282] Golden:  -4026, Yours:  -4026, time:  31565
[PASS]  [Pattern  283] Golden:  -3843, Yours:  -3843, time:  31675
[PASS]  [Pattern  284] Golden:  -3660, Yours:  -3660, time:  31785
[PASS]  [Pattern  285] Golden:  -3477, Yours:  -3477, time:  31895
[PASS]  [Pattern  286] Golden:  -3294, Yours:  -3294, time:  32005
[PASS]  [Pattern  287] Golden:  -3111, Yours:  -3111, time:  32115
[PASS]  [Pattern  288] Golden:  -2928, Yours:  -2928, time:  32225
[PASS]  [Pattern  289] Golden:  -2745, Yours:  -2745, time:  32335
[PASS]  [Pattern  290] Golden:  -2562, Yours:  -2562, time:  32445
[PASS]  [Pattern  291] Golden:  -2379, Yours:  -2379, time:  32555
[PASS]  [Pattern  292] Golden:  -2196, Yours:  -2196, time:  32665
[PASS]  [Pattern  293] Golden:  -2013, Yours:  -2013, time:  32775
[PASS]  [Pattern  294] Golden:  -1830, Yours:  -1830, time:  32885
[PASS]  [Pattern  295] Golden:  -1647, Yours:  -1647, time:  32995
[PASS]  [Pattern  296] Golden:  -1464, Yours:  -1464, time:  33105
[PASS]  [Pattern  297] Golden:  -1281, Yours:  -1281, time:  33215
[PASS]  [Pattern  298] Golden:  -1098, Yours:  -1098, time:  33325
[PASS]  [Pattern  299] Golden:   -915, Yours:   -915, time:  33435
[PASS]  [Pattern  300] Golden:   -732, Yours:   -732, time:  33545
[PASS]  [Pattern  301] Golden:   -549, Yours:   -549, time:  33655
[PASS]  [Pattern  302] Golden:   -366, Yours:   -366, time:  33765
[PASS]  [Pattern  303] Golden:   -183, Yours:   -183, time:  33875
[PASS]  [Pattern  304] Golden:      0, Yours:      0, time:  33985
[PASS]  [Pattern  305] Golden:    183, Yours:    183, time:  34095
[PASS]  [Pattern  306] Golden:    366, Yours:    366, time:  34205
[PASS]  [Pattern  307] Golden:    549, Yours:    549, time:  34315
[PASS]  [Pattern  308] Golden:    732, Yours:    732, time:  34425
[PASS]  [Pattern  309] Golden:    915, Yours:    915, time:  34535
[PASS]  [Pattern  310] Golden:   1098, Yours:   1098, time:  34645
[PASS]  [Pattern  311] Golden:   1281, Yours:   1281, time:  34755
[PASS]  [Pattern  312] Golden:   1464, Yours:   1464, time:  34865
[PASS]  [Pattern  313] Golden:   1647, Yours:   1647, time:  34975
[PASS]  [Pattern  314] Golden:   1830, Yours:   1830, time:  35085
[PASS]  [Pattern  315] Golden:   2013, Yours:   2013, time:  35195
[PASS]  [Pattern  316] Golden:   2196, Yours:   2196, time:  35305
[PASS]  [Pattern  317] Golden:   2379, Yours:   2379, time:  35415
[PASS]  [Pattern  318] Golden:   2562, Yours:   2562, time:  35525
[PASS]  [Pattern  319] Golden:   2745, Yours:   2745, time:  35635
[PASS]  [Pattern  320] Golden:   2928, Yours:   2928, time:  35745
[PASS]  [Pattern  321] Golden:   3111, Yours:   3111, time:  35855
[PASS]  [Pattern  322] Golden:   3294, Yours:   3294, time:  35965
[PASS]  [Pattern  323] Golden:   3477, Yours:   3477, time:  36075
[PASS]  [Pattern  324] Golden:   3660, Yours:   3660, time:  36185
[PASS]  [Pattern  325] Golden:   3843, Yours:   3843, time:  36295
[PASS]  [Pattern  326] Golden:   4026, Yours:   4026, time:  36405
[PASS]  [Pattern  327] Golden:   4209, Yours:   4209, time:  36515
[PASS]  [Pattern  328] Golden:   4392, Yours:   4392, time:  36625
[PASS]  [Pattern  329] Golden:   4575, Yours:   4575, time:  36735
[PASS]  [Pattern  330] Golden:   4758, Yours:   4758, time:  36845
[PASS]  [Pattern  331] Golden:   4941, Yours:   4941, time:  36955
[PASS]  [Pattern  332] Golden:   5124, Yours:   5124, time:  37065
[PASS]  [Pattern  333] Golden:   5307, Yours:   5307, time:  37175
[PASS]  [Pattern  334] Golden:   5490, Yours:   5490, time:  37285
[PASS]  [Pattern  335] Golden:   5673, Yours:   5673, time:  37395
[PASS]  [Pattern  336] Golden:   5856, Yours:   5856, time:  37505
[PASS]  [Pattern  337] Golden:   6039, Yours:   6039, time:  37615
[PASS]  [Pattern  338] Golden:   6222, Yours:   6222, time:  37725
[PASS]  [Pattern  339] Golden:   6405, Yours:   6405, time:  37835
[PASS]  [Pattern  340] Golden:   6588, Yours:   6588, time:  37945
[PASS]  [Pattern  341] Golden:   6771, Yours:   6771, time:  38055
[PASS]  [Pattern  342] Golden:   6954, Yours:   6954, time:  38165
[PASS]  [Pattern  343] Golden:   7137, Yours:   7137, time:  38275
[PASS]  [Pattern  344] Golden:   7320, Yours:   7320, time:  38385
[PASS]  [Pattern  345] Golden:   7503, Yours:   7503, time:  38495
[PASS]  [Pattern  346] Golden:   7686, Yours:   7686, time:  38605
[PASS]  [Pattern  347] Golden:   7869, Yours:   7869, time:  38715
[PASS]  [Pattern  348] Golden:   8052, Yours:   8052, time:  38825
[PASS]  [Pattern  349] Golden:   8235, Yours:   8235, time:  38935
[PASS]  [Pattern  350] Golden:   8418, Yours:   8418, time:  39045
[PASS]  [Pattern  351] Golden:   8601, Yours:   8601, time:  39155
[PASS]  [Pattern  352] Golden:   8784, Yours:   8784, time:  39265
[PASS]  [Pattern  353] Golden:   8967, Yours:   8967, time:  39375
[PASS]  [Pattern  354] Golden:   9150, Yours:   9150, time:  39485
[PASS]  [Pattern  355] Golden:   9333, Yours:   9333, time:  39595
[PASS]  [Pattern  356] Golden:   9516, Yours:   9516, time:  39705
[PASS]  [Pattern  357] Golden:   9699, Yours:   9699, time:  39815
[PASS]  [Pattern  358] Golden:   9882, Yours:   9882, time:  39925
[PASS]  [Pattern  359] Golden:  10065, Yours:  10065, time:  40035
[PASS]  [Pattern  360] Golden:  10248, Yours:  10248, time:  40145
[PASS]  [Pattern  361] Golden:  10431, Yours:  10431, time:  40255
[PASS]  [Pattern  362] Golden:  10614, Yours:  10614, time:  40365
[PASS]  [Pattern  363] Golden:  10797, Yours:  10797, time:  40475
[PASS]  [Pattern  364] Golden:  10980, Yours:  10980, time:  40585
[PASS]  [Pattern  365] Golden:  11163, Yours:  11163, time:  40695
[PASS]  [Pattern  366] Golden:  11346, Yours:  11346, time:  40805
[PASS]  [Pattern  367] Golden:  11529, Yours:  11529, time:  40915
[PASS]  [Pattern  368] Golden:  11712, Yours:  11712, time:  41025
[PASS]  [Pattern  369] Golden:  11895, Yours:  11895, time:  41135
[PASS]  [Pattern  370] Golden:  12078, Yours:  12078, time:  41245
[PASS]  [Pattern  371] Golden:  12261, Yours:  12261, time:  41355
[PASS]  [Pattern  372] Golden:  12444, Yours:  12444, time:  41465
[PASS]  [Pattern  373] Golden:  12627, Yours:  12627, time:  41575
[PASS]  [Pattern  374] Golden:  12810, Yours:  12810, time:  41685
[PASS]  [Pattern  375] Golden:  12993, Yours:  12993, time:  41795
[PASS]  [Pattern  376] Golden:  13196, Yours:  13196, time:  41905
[PASS]  [Pattern  377] Golden:  13417, Yours:  13417, time:  42015
[PASS]  [Pattern  378] Golden:  13592, Yours:  13592, time:  42125
[PASS]  [Pattern  379] Golden:  13655, Yours:  13655, time:  42235
[PASS]  [Pattern  380] Golden:  13592, Yours:  13592, time:  42345
[PASS]  [Pattern  381] Golden:  13417, Yours:  13417, time:  42455
[PASS]  [Pattern  382] Golden:  13196, Yours:  13196, time:  42565
